{
  "name": "Cours",
  "fields": [
    {
      "fieldName": "symbol",
      "fieldType": "String",
      "fieldValidateRules": [
        "required",
        "unique",
        "maxlength"
      ],
      "fieldValidateRulesMaxlength": "10"
    },
    {
      "fieldName": "name",
      "fieldType": "String",
      "fieldValidateRules": [
        "required",
        "maxlength"
      ],
      "fieldValidateRulesMaxlength": "70"
    },
    {
      "fieldName": "description",
      "fieldType": "byte[]",
      "fieldTypeBlobContent": "text"
    }
  ],
  "relationships": [
    {
      "relationshipType": "one-to-many",
      "otherEntityName": "group",
      "otherEntityRelationshipName": "cours",
      "relationshipName": "group"
    },
    {
      "relationshipType": "many-to-many",
      "otherEntityName": "variant",
      "otherEntityRelationshipName": "cours",
      "relationshipName": "variant",
      "otherEntityField": "name",
      "ownerSide": true
    }
  ],
  "changelogDate": "20210214050516",
  "entityTableName": "cours",
  "dto": "no",
  "pagination": "no",
  "service": "no",
  "jpaMetamodelFiltering": false,
  "fluentMethods": true,
  "readOnly": false,
  "embedded": false,
  "clientRootFolder": "",
  "applications": "*"
}
