{
  "name": "SubGroup",
  "fields": [
    {
      "fieldName": "name",
      "fieldType": "String",
      "fieldValidateRules": [
        "maxlength",
        "required"
      ],
      "fieldValidateRulesMaxlength": "30"
    }
  ],
  "relationships": [
    {
      "relationshipType": "many-to-many",
      "otherEntityName": "student",
      "otherEntityRelationshipName": "subgroup",
      "relationshipName": "student",
      "otherEntityField": "email",
      "ownerSide": true
    },
    {
      "relationshipType": "many-to-one",
      "otherEntityName": "group",
      "otherEntityRelationshipName": "subGroup",
      "relationshipValidateRules": "required",
      "relationshipName": "group",
      "otherEntityField": "id"
    }
  ],
  "changelogDate": "20210214050816",
  "entityTableName": "sub_group",
  "dto": "no",
  "pagination": "no",
  "service": "no",
  "jpaMetamodelFiltering": false,
  "fluentMethods": true,
  "readOnly": false,
  "embedded": false,
  "clientRootFolder": "",
  "applications": "*"
}
