{
  "name": "Variant",
  "fields": [
    {
      "fieldName": "name",
      "fieldType": "String",
      "fieldValidateRules": [
        "required",
        "maxlength"
      ],
      "fieldValidateRulesMaxlength": "50"
    },
    {
      "fieldName": "description",
      "fieldType": "byte[]",
      "fieldTypeBlobContent": "text",
      "fieldValidateRules": [
        "required"
      ]
    }
  ],
  "relationships": [
    {
      "relationshipType": "many-to-one",
      "otherEntityName": "workshop",
      "otherEntityRelationshipName": "variant",
      "relationshipValidateRules": "required",
      "relationshipName": "workshop",
      "otherEntityField": "name"
    },
    {
      "relationshipType": "many-to-many",
      "otherEntityName": "cours",
      "otherEntityRelationshipName": "variant",
      "relationshipName": "cours",
      "otherEntityField": "symbol",
      "ownerSide": false
    }
  ],
  "changelogDate": "20210214050616",
  "entityTableName": "variant",
  "dto": "no",
  "pagination": "no",
  "service": "no",
  "jpaMetamodelFiltering": false,
  "fluentMethods": true,
  "readOnly": false,
  "embedded": false,
  "clientRootFolder": "",
  "applications": "*"
}
